{
  "name": "BMW",
  "plural": "people",
  "base": "PersistedModel",
  "idInjection": true,
  "options": {
    "validateUpsert": true
  },
  "properties": {
    "RohithBabu": {
      "type": "string",
      "required": true
    },
    "Sadhu": {
      "type": "string",
      "required": true
    }
  },
  "validations": [],
  "relations": {},
  "acls": [],
  "methods": {}
}
